Data Science em Gestão de Negócios e Finanças
…
# cria nova base com países que estão na lista acima
mercosul <- gapminder %>%
  filter(country %in% lista_paises_Mercosul)

# mostra resultado
mercosul
```

```
## # A tibble: 36 x 6
##    country   continent  year lifeExp      pop gdpPercap
##    <fct>     <fct>     <int>   <dbl>    <int>     <dbl>
##  1 Argentina Americas   1952    62.5 17876956     5911.
##  2 Argentina Americas   1957    64.4 19610538     6857.
##  3 Argentina Americas   1962    65.1 21283783     7133.
##  4 Argentina Americas   1967    65.6 22934225     8053.
##  5 Argentina Americas   1972    67.1 24779799     9443.
##  6 Argentina Americas   1977    68.5 26983828    10079.
##  7 Argentina Americas   1982    69.9 29341374     8998.
##  8 Argentina Americas   1987    70.8 31620918     9140.
##  9 Argentina Americas   1992    71.9 33958947     9308.
## 10 Argentina Americas   1997    73.3 36203463    10967.
## # … with 26 more rows
```

---
## Ordenando: `arrange()`

podemo ordenar os resultados usando `arrange()`

```r
mercosul %>% 
  arrange(year, -pop)
```

```
## # A tibble: 36 x 6
##    country   continent  year lifeExp      pop gdpPercap
##    <fct>     <fct>     <int>   <dbl>    <int>     <dbl>
##  1 Brazil    Americas   1952    50.9 56602560     2109.
##  2 Argentina Americas   1952    62.5 17876956     5911.
##  3 Uruguay   Americas   1952    66.1  2252965     5717.
##  4 Brazil    Americas   1957    53.3 65551171     2487.
##  5 Argentina Americas   1957    64.4 19610538     6857.
##  6 Uruguay   Americas   1957    67.0  2424959     6151.
##  7 Brazil    Americas   1962    55.7 76039390     3337.
##  8 Argentina Americas   1962    65.1 21283783     7133.
##  9 Uruguay   Americas   1962    68.3  2598466     5603.
## 10 Brazil    Americas   1967    57.6 88049823     3430.
## # … with 26 more rows
```
…
